<svg width="276" height="91" viewBox="0 0 276 91" fill="none" xmlns="http://www.w3.org/2000/svg">
<rect width="276" height="91" rx="12" fill="black"/>
<path d="M56.4187 37.8123L32.3644 24.5598L32.3494 24.5514C31.935 24.3264 31.5412 24.887 31.8806 25.2132L50.7366 43.2432L56.4187 37.8123Z" fill="#34A853"/>
<path d="M31.8825 65.7864C31.5412 66.1126 31.935 66.6732 32.3512 66.4482L32.3662 66.4398L56.4187 53.1873L50.7366 47.7545L31.8825 65.7864Z" fill="#EA4335"/>
<path fill-rule="evenodd" clip-rule="evenodd" d="M28.5 63.9207V27.077C28.5002 26.997 28.5241 26.919 28.5685 26.8525C28.613 26.7861 28.6761 26.7342 28.7498 26.7035C28.8236 26.6728 28.9049 26.6645 28.9833 26.6797C29.0618 26.695 29.134 26.733 29.1909 26.7892L48.375 45.4998L29.1909 64.2085C29.134 64.2647 29.0618 64.3027 28.9833 64.318C28.9049 64.3332 28.8236 64.3249 28.7498 64.2942C28.6761 64.2635 28.613 64.2116 28.5685 64.1452C28.5241 64.0788 28.5002 64.0007 28.5 63.9207Z" fill="#4285F4"/>
<path d="M66.1294 43.156L59.4122 39.4567L53.0962 45.4998L59.4122 51.5401L66.1294 47.8435C67.9566 46.8339 67.9566 44.1657 66.1294 43.156Z" fill="#FBBC04"/>
<path d="M86.3808 29C85.4368 29 84.6381 28.8179 83.9847 28.4538C83.3392 28.0897 82.8471 27.5724 82.5083 26.9021C82.1694 26.2317 82 25.4372 82 24.5186C82 23.5917 82.1735 22.7931 82.5204 22.1228C82.8673 21.4441 83.3675 20.9228 84.021 20.5586C84.6744 20.1862 85.457 20 86.3687 20C86.9657 20 87.5264 20.091 88.0508 20.2731C88.5752 20.4469 89.0108 20.691 89.3577 21.0055L88.8374 22.2469C88.4582 21.9407 88.0709 21.7214 87.6756 21.589C87.2803 21.4566 86.8446 21.3903 86.3687 21.3903C85.4651 21.3903 84.7793 21.6593 84.3114 22.1972C83.8515 22.7352 83.6216 23.509 83.6216 24.5186C83.6216 25.5366 83.8596 26.3103 84.3356 26.84C84.8116 27.3697 85.5175 27.6345 86.4534 27.6345C86.7196 27.6345 86.9899 27.6138 87.2642 27.5724C87.5465 27.5228 87.8249 27.4524 88.0992 27.3614V25.3255H86.1387V24.1462H89.394V28.3545C88.9987 28.5531 88.5308 28.7103 87.9903 28.8262C87.4497 28.9421 86.9132 29 86.3808 29Z" fill="white"/>
<path d="M91.189 28.8759V20.1241H96.8647V21.3903H92.6775V23.7986H96.5984V25.0648H92.6775V27.6097H96.8647V28.8759H91.189Z" fill="white"/>
<path d="M100.408 28.8759V21.4524H97.4794V20.1241H104.886V21.4524H101.957V28.8759H100.408Z" fill="white"/>
<path d="M109.129 28.8759V20.1241H110.678V28.8759H109.129Z" fill="white"/>
<path d="M114.589 28.8759V21.4524H111.661V20.1241H119.067V21.4524H116.138V28.8759H114.589Z" fill="white"/>
<path d="M127.134 29C126.311 29 125.589 28.8138 124.968 28.4414C124.355 28.069 123.879 27.5476 123.54 26.8772C123.201 26.1986 123.032 25.4041 123.032 24.4938C123.032 23.5752 123.201 22.7807 123.54 22.1103C123.879 21.44 124.355 20.9228 124.968 20.5586C125.581 20.1862 126.303 20 127.134 20C127.965 20 128.687 20.1862 129.3 20.5586C129.913 20.9228 130.389 21.44 130.728 22.1103C131.067 22.7807 131.237 23.571 131.237 24.4814C131.237 25.4 131.067 26.1986 130.728 26.8772C130.389 27.5476 129.913 28.069 129.3 28.4414C128.687 28.8138 127.965 29 127.134 29ZM127.134 27.6345C127.917 27.6345 128.526 27.3572 128.962 26.8028C129.397 26.2483 129.615 25.4786 129.615 24.4938C129.615 23.5007 129.397 22.731 128.962 22.1848C128.534 21.6386 127.925 21.3655 127.134 21.3655C126.352 21.3655 125.743 21.6386 125.307 22.1848C124.871 22.731 124.653 23.5007 124.653 24.4938C124.653 25.4786 124.871 26.2483 125.307 26.8028C125.743 27.3572 126.352 27.6345 127.134 27.6345Z" fill="white"/>
<path d="M132.812 28.8759V20.1241H133.973L138.56 26.2317V20.1241H140V28.8759H138.85L134.252 22.7434V28.8759H132.812Z" fill="white"/>
<path d="M82 64.5642V39.3575H93.0554C95.8493 39.3575 98.005 40.0488 99.5224 41.4313C101.04 42.8138 101.798 44.7445 101.798 47.2235C101.798 49.7024 101.04 51.6451 99.5224 53.0514C98.005 54.4339 95.8493 55.1251 93.0554 55.1251H86.6245V64.5642H82ZM86.6245 51.514H92.3328C95.6566 51.514 97.3185 50.0838 97.3185 47.2235C97.3185 44.387 95.6566 42.9687 92.3328 42.9687H86.6245V51.514Z" fill="white"/>
<path d="M111.277 64.9218C109.181 64.9218 107.628 64.3616 106.616 63.2413C105.628 62.0972 105.135 60.4287 105.135 58.2358V39.3575H109.651V58.0212C109.651 60.1665 110.566 61.2391 112.397 61.2391C112.662 61.2391 112.926 61.2272 113.191 61.2034C113.456 61.1795 113.709 61.1318 113.95 61.0603L113.878 64.6C113.011 64.8145 112.144 64.9218 111.277 64.9218Z" fill="white"/>
<path d="M122.489 64.9218C121.212 64.9218 120.068 64.6834 119.056 64.2067C118.069 63.7061 117.286 63.0387 116.708 62.2045C116.154 61.3702 115.877 60.4287 115.877 59.3799C115.877 58.0927 116.214 57.0797 116.889 56.3408C117.563 55.578 118.659 55.0298 120.176 54.6961C121.694 54.3624 123.729 54.1955 126.282 54.1955H127.547V53.4447C127.547 52.2529 127.282 51.3948 126.752 50.8704C126.222 50.346 125.331 50.0838 124.078 50.0838C123.091 50.0838 122.079 50.2387 121.043 50.5486C120.008 50.8346 118.96 51.2875 117.9 51.9073L116.6 48.8682C117.226 48.4391 117.96 48.0696 118.803 47.7598C119.671 47.4261 120.574 47.1758 121.513 47.0089C122.477 46.8182 123.38 46.7229 124.223 46.7229C126.8 46.7229 128.715 47.3188 129.967 48.5106C131.22 49.6786 131.846 51.502 131.846 53.981V64.5642H127.619V61.7754C127.209 62.7527 126.559 63.5274 125.668 64.0994C124.777 64.6477 123.717 64.9218 122.489 64.9218ZM123.428 61.8469C124.608 61.8469 125.584 61.4417 126.354 60.6313C127.149 59.8209 127.547 58.7959 127.547 57.5564V56.7698H126.318C124.054 56.7698 122.477 56.9486 121.585 57.3061C120.718 57.6399 120.285 58.2596 120.285 59.1654C120.285 59.952 120.562 60.5955 121.116 61.0961C121.67 61.5966 122.44 61.8469 123.428 61.8469Z" fill="white"/>
<path d="M137.843 71L141.095 63.8492L133.76 47.0804H138.566L143.515 59.3084L148.573 47.0804H153.125L142.504 71H137.843Z" fill="white"/>
<path d="M174.221 64.9218C172.222 64.9218 170.367 64.6715 168.657 64.171C166.947 63.6466 165.502 62.9434 164.322 62.0615L165.731 58.4503C166.911 59.2845 168.199 59.9281 169.596 60.381C171.017 60.8339 172.559 61.0603 174.221 61.0603C176.124 61.0603 177.508 60.7505 178.376 60.1307C179.243 59.4872 179.676 58.6648 179.676 57.6637C179.676 56.8294 179.363 56.1739 178.737 55.6972C178.135 55.2205 177.087 54.8272 175.594 54.5173L171.62 53.695C167.091 52.7415 164.827 50.4413 164.827 46.7944C164.827 45.2212 165.249 43.8507 166.092 42.6827C166.935 41.5147 168.103 40.6089 169.596 39.9654C171.09 39.3218 172.812 39 174.763 39C176.497 39 178.123 39.2622 179.64 39.7866C181.157 40.2872 182.422 41.0022 183.434 41.9318L182.025 45.3642C180.025 43.6957 177.593 42.8615 174.727 42.8615C173.065 42.8615 171.764 43.2071 170.825 43.8983C169.885 44.5896 169.416 45.4953 169.416 46.6156C169.416 47.4737 169.705 48.165 170.283 48.6894C170.861 49.1899 171.848 49.5832 173.245 49.8693L177.183 50.6916C179.568 51.1922 181.338 51.9788 182.494 53.0514C183.674 54.124 184.265 55.5542 184.265 57.3419C184.265 58.8436 183.855 60.1665 183.036 61.3106C182.217 62.4547 181.049 63.3486 179.532 63.9922C178.038 64.6119 176.268 64.9218 174.221 64.9218Z" fill="white"/>
<path d="M195.716 64.9218C191.044 64.9218 188.708 62.6335 188.708 58.057V50.4413H185.311V47.0804H188.708V41.8603H193.224V47.0804H198.571V50.4413H193.224V57.8067C193.224 58.9508 193.476 59.8089 193.982 60.381C194.488 60.9531 195.307 61.2391 196.439 61.2391C196.776 61.2391 197.125 61.2034 197.487 61.1318C197.848 61.0365 198.221 60.9412 198.607 60.8458L199.293 64.1352C198.86 64.3736 198.306 64.5642 197.631 64.7073C196.981 64.8503 196.343 64.9218 195.716 64.9218Z" fill="white"/>
<path d="M209.37 64.9218C207.539 64.9218 205.949 64.5523 204.601 63.8134C203.252 63.0745 202.204 62.0257 201.458 60.667C200.711 59.2845 200.338 57.6637 200.338 55.8045C200.338 53.9453 200.711 52.3363 201.458 50.9777C202.204 49.619 203.252 48.5702 204.601 47.8313C205.949 47.0924 207.539 46.7229 209.37 46.7229C211.2 46.7229 212.79 47.0924 214.139 47.8313C215.487 48.5702 216.535 49.619 217.282 50.9777C218.028 52.3363 218.402 53.9453 218.402 55.8045C218.402 57.6637 218.028 59.2845 217.282 60.667C216.535 62.0257 215.487 63.0745 214.139 63.8134C212.79 64.5523 211.2 64.9218 209.37 64.9218ZM209.37 61.5251C210.718 61.5251 211.802 61.0484 212.621 60.095C213.44 59.1177 213.85 57.6875 213.85 55.8045C213.85 53.8976 213.44 52.4793 212.621 51.5497C211.802 50.5963 210.718 50.1196 209.37 50.1196C208.021 50.1196 206.937 50.5963 206.118 51.5497C205.299 52.4793 204.89 53.8976 204.89 55.8045C204.89 57.6875 205.299 59.1177 206.118 60.095C206.937 61.0484 208.021 61.5251 209.37 61.5251Z" fill="white"/>
<path d="M222.129 64.5642V47.0804H226.537V50.1553C227.404 48.0816 229.259 46.9374 232.101 46.7229L233.474 46.6156L233.763 50.4056L231.161 50.6559C228.199 50.9419 226.718 52.4436 226.718 55.1609V64.5642H222.129Z" fill="white"/>
<path d="M244.702 64.9218C242.703 64.9218 240.981 64.5523 239.536 63.8134C238.09 63.0745 236.971 62.0257 236.176 60.667C235.405 59.3084 235.02 57.6994 235.02 55.8402C235.02 54.0287 235.393 52.4436 236.14 51.0849C236.91 49.7263 237.958 48.6656 239.283 47.9028C240.632 47.1162 242.161 46.7229 243.871 46.7229C246.376 46.7229 248.351 47.5095 249.796 49.0827C251.265 50.6559 252 52.8011 252 55.5184V56.8413H239.355C239.692 59.9639 241.499 61.5251 244.774 61.5251C245.762 61.5251 246.749 61.3821 247.737 61.0961C248.724 60.7862 249.628 60.3095 250.446 59.6659L251.711 62.6693C250.868 63.3605 249.808 63.9088 248.532 64.314C247.255 64.7192 245.979 64.9218 244.702 64.9218ZM244.052 49.762C242.727 49.762 241.655 50.1672 240.836 50.9777C240.017 51.7881 239.524 52.8845 239.355 54.267H248.243C248.146 52.813 247.737 51.7047 247.014 50.9419C246.316 50.1553 245.328 49.762 244.052 49.762Z" fill="white"/>
</svg>
