<svg width="276" height="75" viewBox="0 0 276 75" fill="none" xmlns="http://www.w3.org/2000/svg">
<rect width="276" height="75" rx="12" fill="black"/>
<path d="M56.4187 29.8123L32.3644 16.5598L32.3494 16.5514C31.935 16.3264 31.5412 16.887 31.8806 17.2132L50.7366 35.2432L56.4187 29.8123Z" fill="#34A853"/>
<path d="M31.8825 57.7864C31.5412 58.1126 31.935 58.6732 32.3512 58.4482L32.3662 58.4398L56.4187 45.1873L50.7366 39.7545L31.8825 57.7864Z" fill="#EA4335"/>
<path fill-rule="evenodd" clip-rule="evenodd" d="M28.5 55.9207V19.077C28.5002 18.997 28.5241 18.919 28.5685 18.8525C28.613 18.7861 28.6761 18.7342 28.7498 18.7035C28.8236 18.6728 28.9049 18.6645 28.9833 18.6797C29.0618 18.695 29.134 18.733 29.1909 18.7892L48.375 37.4998L29.1909 56.2085C29.134 56.2647 29.0618 56.3027 28.9833 56.318C28.9049 56.3332 28.8236 56.3249 28.7498 56.2942C28.6761 56.2635 28.613 56.2116 28.5685 56.1452C28.5241 56.0788 28.5002 56.0007 28.5 55.9207Z" fill="#4285F4"/>
<path d="M66.1294 35.156L59.4122 31.4567L53.0962 37.4998L59.4122 43.5401L66.1294 39.8435C67.9566 38.8339 67.9566 36.1657 66.1294 35.156Z" fill="#FBBC04"/>
<path d="M86.3808 21C85.4368 21 84.6381 20.8179 83.9847 20.4538C83.3392 20.0897 82.8471 19.5724 82.5083 18.9021C82.1694 18.2317 82 17.4372 82 16.5186C82 15.5917 82.1735 14.7931 82.5204 14.1228C82.8673 13.4441 83.3675 12.9228 84.021 12.5586C84.6744 12.1862 85.457 12 86.3687 12C86.9657 12 87.5264 12.091 88.0508 12.2731C88.5752 12.4469 89.0108 12.691 89.3577 13.0055L88.8374 14.2469C88.4582 13.9407 88.0709 13.7214 87.6756 13.589C87.2803 13.4566 86.8446 13.3903 86.3687 13.3903C85.4651 13.3903 84.7793 13.6593 84.3114 14.1972C83.8515 14.7352 83.6216 15.509 83.6216 16.5186C83.6216 17.5366 83.8596 18.3103 84.3356 18.84C84.8116 19.3697 85.5175 19.6345 86.4534 19.6345C86.7196 19.6345 86.9899 19.6138 87.2642 19.5724C87.5465 19.5228 87.8249 19.4524 88.0992 19.3614V17.3255H86.1387V16.1462H89.394V20.3545C88.9987 20.5531 88.5308 20.7103 87.9903 20.8262C87.4497 20.9421 86.9132 21 86.3808 21Z" fill="white"/>
<path d="M91.189 20.8759V12.1241H96.8647V13.3903H92.6775V15.7986H96.5984V17.0648H92.6775V19.6097H96.8647V20.8759H91.189Z" fill="white"/>
<path d="M100.408 20.8759V13.4524H97.4794V12.1241H104.886V13.4524H101.957V20.8759H100.408Z" fill="white"/>
<path d="M109.129 20.8759V12.1241H110.678V20.8759H109.129Z" fill="white"/>
<path d="M114.589 20.8759V13.4524H111.661V12.1241H119.067V13.4524H116.138V20.8759H114.589Z" fill="white"/>
<path d="M127.134 21C126.311 21 125.589 20.8138 124.968 20.4414C124.355 20.069 123.879 19.5476 123.54 18.8772C123.201 18.1986 123.032 17.4041 123.032 16.4938C123.032 15.5752 123.201 14.7807 123.54 14.1103C123.879 13.44 124.355 12.9228 124.968 12.5586C125.581 12.1862 126.303 12 127.134 12C127.965 12 128.687 12.1862 129.3 12.5586C129.913 12.9228 130.389 13.44 130.728 14.1103C131.067 14.7807 131.237 15.571 131.237 16.4814C131.237 17.4 131.067 18.1986 130.728 18.8772C130.389 19.5476 129.913 20.069 129.3 20.4414C128.687 20.8138 127.965 21 127.134 21ZM127.134 19.6345C127.917 19.6345 128.526 19.3572 128.962 18.8028C129.397 18.2483 129.615 17.4786 129.615 16.4938C129.615 15.5007 129.397 14.731 128.962 14.1848C128.534 13.6386 127.925 13.3655 127.134 13.3655C126.352 13.3655 125.743 13.6386 125.307 14.1848C124.871 14.731 124.653 15.5007 124.653 16.4938C124.653 17.4786 124.871 18.2483 125.307 18.8028C125.743 19.3572 126.352 19.6345 127.134 19.6345Z" fill="white"/>
<path d="M132.812 20.8759V12.1241H133.973L138.56 18.2317V12.1241H140V20.8759H138.85L134.252 14.7434V20.8759H132.812Z" fill="white"/>
<path d="M82 56.5642V31.3575H93.0554C95.8493 31.3575 98.005 32.0488 99.5224 33.4313C101.04 34.8138 101.798 36.7445 101.798 39.2235C101.798 41.7024 101.04 43.6451 99.5224 45.0514C98.005 46.4339 95.8493 47.1251 93.0554 47.1251H86.6245V56.5642H82ZM86.6245 43.514H92.3328C95.6566 43.514 97.3185 42.0838 97.3185 39.2235C97.3185 36.387 95.6566 34.9687 92.3328 34.9687H86.6245V43.514Z" fill="white"/>
<path d="M111.277 56.9218C109.181 56.9218 107.628 56.3616 106.616 55.2413C105.628 54.0972 105.135 52.4287 105.135 50.2358V31.3575H109.651V50.0212C109.651 52.1665 110.566 53.2391 112.397 53.2391C112.662 53.2391 112.926 53.2272 113.191 53.2034C113.456 53.1795 113.709 53.1318 113.95 53.0603L113.878 56.6C113.011 56.8145 112.144 56.9218 111.277 56.9218Z" fill="white"/>
<path d="M122.489 56.9218C121.212 56.9218 120.068 56.6834 119.056 56.2067C118.069 55.7061 117.286 55.0387 116.708 54.2045C116.154 53.3702 115.877 52.4287 115.877 51.3799C115.877 50.0927 116.214 49.0797 116.889 48.3408C117.563 47.578 118.659 47.0298 120.176 46.6961C121.694 46.3624 123.729 46.1955 126.282 46.1955H127.547V45.4447C127.547 44.2529 127.282 43.3948 126.752 42.8704C126.222 42.346 125.331 42.0838 124.078 42.0838C123.091 42.0838 122.079 42.2387 121.043 42.5486C120.008 42.8346 118.96 43.2875 117.9 43.9073L116.6 40.8682C117.226 40.4391 117.96 40.0696 118.803 39.7598C119.671 39.4261 120.574 39.1758 121.513 39.0089C122.477 38.8182 123.38 38.7229 124.223 38.7229C126.8 38.7229 128.715 39.3188 129.967 40.5106C131.22 41.6786 131.846 43.502 131.846 45.981V56.5642H127.619V53.7754C127.209 54.7527 126.559 55.5274 125.668 56.0994C124.777 56.6477 123.717 56.9218 122.489 56.9218ZM123.428 53.8469C124.608 53.8469 125.584 53.4417 126.354 52.6313C127.149 51.8209 127.547 50.7959 127.547 49.5564V48.7698H126.318C124.054 48.7698 122.477 48.9486 121.585 49.3061C120.718 49.6399 120.285 50.2596 120.285 51.1654C120.285 51.952 120.562 52.5955 121.116 53.0961C121.67 53.5966 122.44 53.8469 123.428 53.8469Z" fill="white"/>
<path d="M137.843 63L141.095 55.8492L133.76 39.0804H138.566L143.515 51.3084L148.573 39.0804H153.125L142.504 63H137.843Z" fill="white"/>
<path d="M174.221 56.9218C172.222 56.9218 170.367 56.6715 168.657 56.171C166.947 55.6466 165.502 54.9434 164.322 54.0615L165.731 50.4503C166.911 51.2845 168.199 51.9281 169.596 52.381C171.017 52.8339 172.559 53.0603 174.221 53.0603C176.124 53.0603 177.508 52.7505 178.376 52.1307C179.243 51.4872 179.676 50.6648 179.676 49.6637C179.676 48.8294 179.363 48.1739 178.737 47.6972C178.135 47.2205 177.087 46.8272 175.594 46.5173L171.62 45.695C167.091 44.7415 164.827 42.4413 164.827 38.7944C164.827 37.2212 165.249 35.8507 166.092 34.6827C166.935 33.5147 168.103 32.6089 169.596 31.9654C171.09 31.3218 172.812 31 174.763 31C176.497 31 178.123 31.2622 179.64 31.7866C181.157 32.2872 182.422 33.0022 183.434 33.9318L182.025 37.3642C180.025 35.6957 177.593 34.8615 174.727 34.8615C173.065 34.8615 171.764 35.2071 170.825 35.8983C169.885 36.5896 169.416 37.4953 169.416 38.6156C169.416 39.4737 169.705 40.165 170.283 40.6894C170.861 41.1899 171.848 41.5832 173.245 41.8693L177.183 42.6916C179.568 43.1922 181.338 43.9788 182.494 45.0514C183.674 46.124 184.265 47.5542 184.265 49.3419C184.265 50.8436 183.855 52.1665 183.036 53.3106C182.217 54.4547 181.049 55.3486 179.532 55.9922C178.038 56.6119 176.268 56.9218 174.221 56.9218Z" fill="white"/>
<path d="M195.716 56.9218C191.044 56.9218 188.708 54.6335 188.708 50.057V42.4413H185.311V39.0804H188.708V33.8603H193.224V39.0804H198.571V42.4413H193.224V49.8067C193.224 50.9508 193.476 51.8089 193.982 52.381C194.488 52.9531 195.307 53.2391 196.439 53.2391C196.776 53.2391 197.125 53.2034 197.487 53.1318C197.848 53.0365 198.221 52.9412 198.607 52.8458L199.293 56.1352C198.86 56.3736 198.306 56.5642 197.631 56.7073C196.981 56.8503 196.343 56.9218 195.716 56.9218Z" fill="white"/>
<path d="M209.37 56.9218C207.539 56.9218 205.95 56.5523 204.601 55.8134C203.252 55.0745 202.204 54.0257 201.458 52.667C200.711 51.2845 200.338 49.6637 200.338 47.8045C200.338 45.9453 200.711 44.3363 201.458 42.9777C202.204 41.619 203.252 40.5702 204.601 39.8313C205.95 39.0924 207.539 38.7229 209.37 38.7229C211.2 38.7229 212.79 39.0924 214.139 39.8313C215.487 40.5702 216.535 41.619 217.282 42.9777C218.028 44.3363 218.402 45.9453 218.402 47.8045C218.402 49.6637 218.028 51.2845 217.282 52.667C216.535 54.0257 215.487 55.0745 214.139 55.8134C212.79 56.5523 211.2 56.9218 209.37 56.9218ZM209.37 53.5251C210.718 53.5251 211.802 53.0484 212.621 52.095C213.44 51.1177 213.85 49.6875 213.85 47.8045C213.85 45.8976 213.44 44.4793 212.621 43.5497C211.802 42.5963 210.718 42.1196 209.37 42.1196C208.021 42.1196 206.937 42.5963 206.118 43.5497C205.299 44.4793 204.89 45.8976 204.89 47.8045C204.89 49.6875 205.299 51.1177 206.118 52.095C206.937 53.0484 208.021 53.5251 209.37 53.5251Z" fill="white"/>
<path d="M222.129 56.5642V39.0804H226.537V42.1553C227.404 40.0816 229.259 38.9374 232.101 38.7229L233.474 38.6156L233.763 42.4056L231.161 42.6559C228.199 42.9419 226.718 44.4436 226.718 47.1609V56.5642H222.129Z" fill="white"/>
<path d="M244.702 56.9218C242.703 56.9218 240.981 56.5523 239.536 55.8134C238.09 55.0745 236.971 54.0257 236.176 52.667C235.405 51.3084 235.02 49.6994 235.02 47.8402C235.02 46.0287 235.393 44.4436 236.14 43.0849C236.91 41.7263 237.958 40.6656 239.283 39.9028C240.632 39.1162 242.161 38.7229 243.871 38.7229C246.376 38.7229 248.351 39.5095 249.796 41.0827C251.265 42.6559 252 44.8011 252 47.5184V48.8413H239.355C239.692 51.9639 241.499 53.5251 244.774 53.5251C245.762 53.5251 246.749 53.3821 247.737 53.0961C248.724 52.7862 249.628 52.3095 250.446 51.6659L251.711 54.6693C250.868 55.3605 249.808 55.9088 248.532 56.314C247.255 56.7192 245.979 56.9218 244.702 56.9218ZM244.052 41.762C242.727 41.762 241.655 42.1672 240.836 42.9777C240.017 43.7881 239.524 44.8845 239.355 46.267H248.243C248.146 44.813 247.737 43.7047 247.014 42.9419C246.316 42.1553 245.328 41.762 244.052 41.762Z" fill="white"/>
</svg>
