<svg width="40" height="31" viewBox="0 0 40 31" fill="none" xmlns="http://www.w3.org/2000/svg">
<path d="M20 0.174805C0.344 0.174805 0 1.9228 0 15.5748C0 29.2268 0.344 30.9748 20 30.9748C39.656 30.9748 40 29.2268 40 15.5748C40 1.9228 39.656 0.174805 20 0.174805ZM26.41 16.2428L17.43 20.4348C16.644 20.7988 16 20.3908 16 19.5228V11.6268C16 10.7608 16.644 10.3508 17.43 10.7148L26.41 14.9068C27.196 15.2748 27.196 15.8748 26.41 16.2428Z" fill="white"/>
</svg>
