<svg width="16" height="16" viewBox="0 0 16 16" fill="none" xmlns="http://www.w3.org/2000/svg">
<path d="M8.19149 5.70244L10.8707 5.2154L7.84445 11.2935L8.56545 7.84997L8.72001 7.11176L7.97988 7.25684L4.90465 7.85963L6.42841 1.5H8.77935L7.62643 5.05631L7.36846 5.85205L8.19149 5.70244Z" fill="#F56600" stroke="#F56600"/>
</svg>
