<svg width="16" height="16" viewBox="0 0 16 16" fill="none" xmlns="http://www.w3.org/2000/svg">
<path d="M8.30396 11.25C10.1777 11.25 11.4352 9.80515 11.5 8C11.4352 6.19486 10.0694 4.75 8.19563 4.75C6.32211 4.75 5.06392 6.19486 5 8C5.0637 9.80515 6.43023 11.25 8.30396 11.25Z" fill="#F56600"/>
<path d="M8.18751 2.5C5.15001 2.5 2.68726 4.9625 2.68726 8C2.68726 11.0373 5.15026 13.5 8.18751 13.5C11.2248 13.5 13.6875 11.0373 13.6875 8C13.6875 4.9625 11.2248 2.5 8.18751 2.5ZM8.18726 12C5.97801 12 4.18701 10.2698 4.18701 8.13475C4.18701 8.08925 4.19326 8.045 4.19476 8C4.19326 7.955 4.18701 7.9105 4.18701 7.86525C4.18701 5.73025 5.97826 4 8.18726 4C10.3965 4 12.1873 5.73025 12.1873 7.86525C12.1873 7.9105 12.182 7.955 12.1808 8C12.1823 8.045 12.1873 8.08925 12.1873 8.13475C12.187 10.2698 10.3965 12 8.18726 12Z" fill="#F56600"/>
<path d="M13.905 1.75C14.2145 1.74925 15.4985 2.675 15.5 6.1155C15.5015 7.21575 14.9013 7.2155 14.9023 7.90375C14.9033 8.59075 14.907 14.0553 14.907 14.0553C14.907 14.0553 14.2485 14.507 13.759 14.0343L13.75 1.84775C13.7505 1.848 13.7487 1.74975 13.905 1.75Z" fill="#F56600"/>
<path d="M0.870357 1.85527C0.930357 1.62002 1.04911 1.85252 1.04911 1.85252C1.04911 1.85252 1.09061 4.28752 1.36061 4.31402C1.63061 4.34052 1.42261 1.80852 1.74211 1.76002C2.03911 1.71277 1.86961 4.35427 2.14011 4.32752C2.40961 4.29902 2.45511 1.86502 2.45511 1.86502C2.45511 1.86502 2.57511 1.63277 2.63436 1.86627C3.36636 4.74377 2.77411 5.92002 2.77411 5.92002C2.77411 5.92002 2.67411 6.16727 2.43661 6.16852C2.41436 6.16727 2.43111 13.0025 2.42961 13.9215C2.43011 14.3683 1.05461 14.3545 1.05536 13.9098C1.05636 12.9908 1.08311 6.15627 1.06161 6.15677C0.823357 6.15677 0.723607 5.90977 0.723607 5.90977C0.723607 5.90977 0.133607 4.73427 0.870357 1.85527" fill="#F56600"/>
</svg>
