<svg width="16" height="16" viewBox="0 0 16 16" fill="none" xmlns="http://www.w3.org/2000/svg">
<g clip-path="url(#clip0_1574_1770)">
<path d="M15.5 4.8247V16.5H14.2143V6.8V6.3H13.7143H2.28571H1.78571V6.8V16.5H0.5V4.8247L8 0.574698L15.5 4.8247ZM12.0714 8.43333V9.7H3.92857V8.43333H12.0714ZM12.0714 11.8333V13.1H3.92857V11.8333H12.0714ZM12.0714 15.2333V16.5H3.92857V15.2333H12.0714Z" fill="#F56600" stroke="#F56600"/>
</g>
<defs>
<clipPath id="clip0_1574_1770">
<rect width="16" height="16" fill="white"/>
</clipPath>
</defs>
</svg>
