{
  "masterPropertyCategories": [
    {
      "is_secondary": true,
      "name": "ruko",
      "is_housing": true
    },
    {
      "name": "toko",
      "is_housing": false,
      "is_secondary": true
    },
    {
      "is_secondary": false,
      "is_housing": true,
      "name": "perumahan komersil"
    },
    {
      "is_housing": true,
      "is_secondary": false,
      "name": "perumahan subsidi"
    },
    {
      "is_housing": false,
      "is_secondary": true,
      "name": "rumah seken"
    },
    {
      "is_secondary": true,
      "name": "tanah",
      "is_housing": false
    },
    {
      "name": "rumah kos",
      "is_housing": false,
      "is_secondary": false
    },
    {
      "name": "perkantoran",
      "is_housing": false,
      "is_secondary": true
    },
    {
      "name": "apartemen",
      "is_secondary": true,
      "is_housing": false
    },
    {
      "is_housing": false,
      "name": "gudang",
      "is_secondary": true
    }
  ],
  "masterInvesments": ["jual", "sewa"]
}
