[
  {
    "id": 1,
    "video": "https://www.youtube.com/watch?v=WZkf04HN6vk",
    "title": "Video 1",
    "desc": "Mau beli rumah tapi tidak tau harus seperti apa? #belirumah #tipsinvestasi"
  },
  {
    "id": 2,
    "video": "../presentation/assets/videos/IMG_3462.MP4",
    "title": "Video 2",
    "desc": "Gak mau beli rumah tapi tidak tau harus seperti apa? #belirumah #tipsinvestasi"
  },
  {
    "id": 3,
    "video": "../presentation/assets/videos/IMG_3463.MP4",
    "title": "Video 3",
    "desc": "Iya mau beli rumah tapi tidak tau harus seperti apa? #belirumah #tipsinvestasi"
  }
]
